<?xml version="1.0" encoding="utf-8"?>
<!-- Generator: Adobe Illustrator 18.1.0, SVG Export Plug-In . SVG Version: 6.00 Build 0)  -->
<!DOCTYPE svg PUBLIC "-//W3C//DTD SVG 1.1//EN" "http://www.w3.org/Graphics/SVG/1.1/DTD/svg11.dtd">
<svg version="1.1" id="Layer_1" xmlns="http://www.w3.org/2000/svg" xmlns:xlink="http://www.w3.org/1999/xlink" x="0px" y="0px"
	 viewBox="0 0 15.4 15" enable-background="new 0 0 15.4 15" xml:space="preserve">
<g>
	<defs>
		<rect id="SVGID_1_" y="0" width="15.4" height="15"/>
	</defs>
	<clipPath id="SVGID_2_">
		<use xlink:href="#SVGID_1_"  overflow="visible"/>
	</clipPath>
	<path clip-path="url(#SVGID_2_)" d="M13,8c0,3.3-2.7,6-6,6c-3.3,0-6-2.7-6-6c0-3.3,2.7-6,6-6c1.6,0,3,0.6,4.1,1.6l-4.3,5L3.6,5.4
		L2.5,7.5l3.3,3.7l0.8,1l0.8-0.9l4.8-6.2C12.7,5.9,13,6.9,13,8 M15.4,1.1L14.2,0l-2.5,2.8C10.5,1.7,8.8,1,7,1C3.1,1,0,4.1,0,8
		c0,3.9,3.1,7,7,7c3.9,0,7-3.1,7-7c0-1.4-0.4-2.7-1.1-3.8L15.4,1.1z"/>
</g>
</svg>
